<?xml version="1.0" encoding="UTF-8" standalone="no"?>
<!-- Created with Inkscape (http://www.inkscape.org/) -->

<svg
   xmlns:dc="http://purl.org/dc/elements/1.1/"
   xmlns:cc="http://creativecommons.org/ns#"
   xmlns:rdf="http://www.w3.org/1999/02/22-rdf-syntax-ns#"
   xmlns:svg="http://www.w3.org/2000/svg"
   xmlns="http://www.w3.org/2000/svg"
   xmlns:sodipodi="http://sodipodi.sourceforge.net/DTD/sodipodi-0.dtd"
   xmlns:inkscape="http://www.inkscape.org/namespaces/inkscape"
   width="64"
   height="64"
   viewBox="0 0 16.933333 16.933333"
   version="1.1"
   id="svg8"
   inkscape:version="0.92.2 2405546, 2018-03-11"
   sodipodi:docname="camera.svg">
  <defs
     id="defs2" />
  <sodipodi:namedview
     id="base"
     pagecolor="#ffffff"
     bordercolor="#666666"
     borderopacity="1.0"
     inkscape:pageopacity="0.0"
     inkscape:pageshadow="2"
     inkscape:zoom="6.6"
     inkscape:cx="20.471676"
     inkscape:cy="56.088332"
     inkscape:document-units="px"
     inkscape:current-layer="layer1"
     showgrid="false"
     units="px"
     inkscape:window-width="1920"
     inkscape:window-height="1039"
     inkscape:window-x="0"
     inkscape:window-y="0"
     inkscape:window-maximized="1" />
  <metadata
     id="metadata5">
    <rdf:RDF>
      <cc:Work
         rdf:about="">
        <dc:format>image/svg+xml</dc:format>
        <dc:type
           rdf:resource="http://purl.org/dc/dcmitype/StillImage" />
        <dc:title></dc:title>
      </cc:Work>
    </rdf:RDF>
  </metadata>
  <g
     inkscape:label="Layer 1"
     inkscape:groupmode="layer"
     id="layer1"
     transform="translate(0,-280.06667)"
     style="display:inline">
    <rect
       style="opacity:1;fill:#808080;fill-opacity:1;stroke-width:0.34481519"
       id="rect819"
       width="16.602213"
       height="9.4499216"
       x="0.17237869"
       y="284.42914"
       rx="1.3032395" />
  </g>
  <g
     inkscape:groupmode="layer"
     id="layer2"
     inkscape:label="Layer 2"
     transform="translate(0,4.2333335)">
    <circle
       style="opacity:1;fill:#4d4d4d;fill-opacity:1;stroke-width:0.34481519"
       id="path822"
       cx="8.4734869"
       cy="4.8911362"
       r="4.0393782" />
  </g>
  <g
     inkscape:groupmode="layer"
     id="layer6"
     inkscape:label="Layer 5"
     transform="translate(0,4.2333335)">
    <circle
       style="opacity:1;fill:#999999;fill-opacity:1;stroke-width:0.34481519"
       id="path843"
       cx="8.5012817"
       cy="4.9003997"
       r="2.6589482" />
  </g>
  <g
     inkscape:groupmode="layer"
     id="layer5"
     inkscape:label="Layer 4"
     transform="translate(0,4.2333335)">
    <g
       inkscape:groupmode="layer"
       id="layer3"
       inkscape:label="Layer 3"
       style="display:inline">
      <path
         style="opacity:1;fill:#f2f2f2;fill-opacity:1;stroke-width:0.23776776"
         d="M 8.5490946,2.4673005 A 2.2742831,2.2742831 0 0 0 7.0690835,3.0185317 2.3956631,2.3956631 0 0 1 8.17201,2.7487209 2.3956631,2.3956631 0 0 1 10.567799,5.1440455 2.3956631,2.3956631 0 0 1 10.363931,6.1081194 2.2742831,2.2742831 0 0 0 10.823213,4.7418835 2.2742831,2.2742831 0 0 0 8.5490946,2.4673005 Z"
         id="path825"
         inkscape:connector-curvature="0" />
    </g>
    <rect
       style="opacity:1;fill:#808080;fill-opacity:1;stroke-width:0.34481519"
       id="rect840"
       width="1.4638113"
       height="3.6502638"
       x="13.680208"
       y="-0.649113"
       rx="1.3032395" />
  </g>
</svg>
