<?xml version="1.0" encoding="UTF-8" standalone="no"?>
<!-- Created with Inkscape (http://www.inkscape.org/) -->

<svg
   xmlns:dc="http://purl.org/dc/elements/1.1/"
   xmlns:cc="http://creativecommons.org/ns#"
   xmlns:rdf="http://www.w3.org/1999/02/22-rdf-syntax-ns#"
   xmlns:svg="http://www.w3.org/2000/svg"
   xmlns="http://www.w3.org/2000/svg"
   xmlns:sodipodi="http://sodipodi.sourceforge.net/DTD/sodipodi-0.dtd"
   xmlns:inkscape="http://www.inkscape.org/namespaces/inkscape"
   width="32"
   height="32"
   viewBox="0 0 8.4666667 8.4666667"
   version="1.1"
   id="svg1103"
   inkscape:version="0.92.2 2405546, 2018-03-11"
   sodipodi:docname="mute_active.svg">
  <defs
     id="defs1097" />
  <sodipodi:namedview
     id="base"
     pagecolor="#ffffff"
     bordercolor="#666666"
     borderopacity="1.0"
     inkscape:pageopacity="0.0"
     inkscape:pageshadow="2"
     inkscape:zoom="13.364318"
     inkscape:cx="-4.3901472"
     inkscape:cy="24.400634"
     inkscape:document-units="mm"
     inkscape:current-layer="layer1"
     showgrid="false"
     units="px"
     inkscape:window-width="1920"
     inkscape:window-height="1039"
     inkscape:window-x="0"
     inkscape:window-y="0"
     inkscape:window-maximized="1" />
  <metadata
     id="metadata1100">
    <rdf:RDF>
      <cc:Work
         rdf:about="">
        <dc:format>image/svg+xml</dc:format>
        <dc:type
           rdf:resource="http://purl.org/dc/dcmitype/StillImage" />
        <dc:title></dc:title>
      </cc:Work>
    </rdf:RDF>
  </metadata>
  <g
     inkscape:label="Layer 1"
     inkscape:groupmode="layer"
     id="layer1"
     transform="translate(0,-288.53333)">
    <path
       style="opacity:1;fill:#9fbf9f;fill-opacity:0.94117647;stroke-width:0.02183512"
       d="m 4.2572991,288.59244 a 4.196041,4.196041 0 0 0 -4.19605489,4.19605 4.196041,4.196041 0 0 0 4.19605489,4.19605 4.196041,4.196041 0 0 0 4.196054,-4.19605 4.196041,4.196041 0 0 0 -4.196054,-4.19605 z m -0.027725,1.14609 a 3.1331672,3.1331672 0 0 1 1.9164164,0.65922 l -4.6206877,4.04864 a 3.1331672,3.1331672 0 0 1 -0.4288984,-1.57469 3.1331672,3.1331672 0 0 1 3.1331697,-3.13317 z m 2.6416242,1.44926 a 3.1331672,3.1331672 0 0 1 0.4915463,1.68391 3.1331672,3.1331672 0 0 1 -3.1331705,3.13316 3.1331672,3.1331672 0 0 1 -2.0166784,-0.73548 z"
       id="path5351"
       inkscape:connector-curvature="0" />
  </g>
</svg>
