<?xml version="1.0" encoding="UTF-8" standalone="no"?>
<!-- Created with Inkscape (http://www.inkscape.org/) -->

<svg
   xmlns:dc="http://purl.org/dc/elements/1.1/"
   xmlns:cc="http://creativecommons.org/ns#"
   xmlns:rdf="http://www.w3.org/1999/02/22-rdf-syntax-ns#"
   xmlns:svg="http://www.w3.org/2000/svg"
   xmlns="http://www.w3.org/2000/svg"
   xmlns:sodipodi="http://sodipodi.sourceforge.net/DTD/sodipodi-0.dtd"
   xmlns:inkscape="http://www.inkscape.org/namespaces/inkscape"
   width="48"
   height="48"
   viewBox="0 0 12.7 12.7"
   version="1.1"
   id="svg8"
   inkscape:version="0.92.2 2405546, 2018-03-11"
   sodipodi:docname="profile.svg">
  <defs
     id="defs2" />
  <sodipodi:namedview
     id="base"
     pagecolor="#ffffff"
     bordercolor="#666666"
     borderopacity="1.0"
     inkscape:pageopacity="0.0"
     inkscape:pageshadow="2"
     inkscape:zoom="11.025562"
     inkscape:cx="28.690956"
     inkscape:cy="-2.0470744"
     inkscape:document-units="mm"
     inkscape:current-layer="layer1"
     showgrid="false"
     units="px"
     inkscape:window-width="1920"
     inkscape:window-height="1039"
     inkscape:window-x="0"
     inkscape:window-y="0"
     inkscape:window-maximized="1" />
  <metadata
     id="metadata5">
    <rdf:RDF>
      <cc:Work
         rdf:about="">
        <dc:format>image/svg+xml</dc:format>
        <dc:type
           rdf:resource="http://purl.org/dc/dcmitype/StillImage" />
        <dc:title />
      </cc:Work>
    </rdf:RDF>
  </metadata>
  <g
     transform="translate(0,-284.3)"
     id="g869"
     inkscape:groupmode="layer"
     inkscape:label="Layer 1 copy" />
  <g
     inkscape:label="Layer 1 copy copy"
     inkscape:groupmode="layer"
     id="g873"
     transform="translate(0,-284.3)">
    <g
       inkscape:label="Layer 1"
       inkscape:groupmode="layer"
       id="layer1">
      <path
         style="opacity:1;fill:#999999;fill-opacity:1;stroke-width:0.0345907"
         d="m 6.1720401,286.31122 a 3.4647892,3.4647892 0 0 0 -3.4648127,3.46481 3.4647892,3.4647892 0 0 0 1.300124,2.70132 6.4537279,6.4537279 0 0 0 -3.90719525,4.48105 H 12.630907 a 6.4537279,6.4537279 0 0 0 -4.1724353,-4.58489 3.4647892,3.4647892 0 0 0 1.178381,-2.59748 3.4647892,3.4647892 0 0 0 -3.4648126,-3.46481 z"
         id="path815"
         inkscape:connector-curvature="0" />
    </g>
  </g>
</svg>
