<?xml version="1.0" encoding="UTF-8" standalone="no"?>
<!-- Created with Inkscape (http://www.inkscape.org/) -->

<svg
   xmlns:dc="http://purl.org/dc/elements/1.1/"
   xmlns:cc="http://creativecommons.org/ns#"
   xmlns:rdf="http://www.w3.org/1999/02/22-rdf-syntax-ns#"
   xmlns:svg="http://www.w3.org/2000/svg"
   xmlns="http://www.w3.org/2000/svg"
   xmlns:sodipodi="http://sodipodi.sourceforge.net/DTD/sodipodi-0.dtd"
   xmlns:inkscape="http://www.inkscape.org/namespaces/inkscape"
   width="48"
   height="48"
   viewBox="0 0 12.7 12.7"
   version="1.1"
   id="svg883"
   inkscape:version="0.92.2 2405546, 2018-03-11"
   sodipodi:docname="video_play.svg">
  <defs
     id="defs877" />
  <sodipodi:namedview
     id="base"
     pagecolor="#ffffff"
     bordercolor="#666666"
     borderopacity="1.0"
     inkscape:pageopacity="0.0"
     inkscape:pageshadow="2"
     inkscape:zoom="19.03125"
     inkscape:cx="29.809338"
     inkscape:cy="25.619095"
     inkscape:document-units="mm"
     inkscape:current-layer="layer1"
     showgrid="false"
     units="px"
     inkscape:window-width="1920"
     inkscape:window-height="1039"
     inkscape:window-x="0"
     inkscape:window-y="0"
     inkscape:window-maximized="1" />
  <metadata
     id="metadata880">
    <rdf:RDF>
      <cc:Work
         rdf:about="">
        <dc:format>image/svg+xml</dc:format>
        <dc:type
           rdf:resource="http://purl.org/dc/dcmitype/StillImage" />
        <dc:title></dc:title>
      </cc:Work>
    </rdf:RDF>
  </metadata>
  <g
     inkscape:label="Layer 1"
     inkscape:groupmode="layer"
     id="layer1"
     style="opacity:0.4"
     transform="translate(0,-284.3)">
    <circle
       style="opacity:1;fill:#ffffff;fill-opacity:1;stroke-width:0.02757089"
       id="path1428"
       cx="6.3465271"
       cy="290.66739"
       r="6.3048148" />
  </g>
  <g
     inkscape:groupmode="layer"
     id="layer2"
     inkscape:label="Layer 2"
     transform="translate(0,-284.3)">
    <path
       inkscape:connector-curvature="0"
       id="path3744"
       d="m 4.8537353,285.34361 c -9.582e-4,-1e-5 -0.00288,5.2e-4 -0.00383,5.2e-4 v 10.50794 l 5.1510777,-4.88791 c 0.07697,-0.0731 0.07993,-0.19366 0.0067,-0.27058 l -5.0204783,-5.2906 c -0.036471,-0.0385 -0.084622,-0.0581 -0.1335657,-0.0594 z"
       style="display:inline;fill:#000000;stroke-width:0.25327477" />
  </g>
</svg>
