<?xml version="1.0" encoding="UTF-8" standalone="no"?>
<!-- Created with Inkscape (http://www.inkscape.org/) -->

<svg
   xmlns:dc="http://purl.org/dc/elements/1.1/"
   xmlns:cc="http://creativecommons.org/ns#"
   xmlns:rdf="http://www.w3.org/1999/02/22-rdf-syntax-ns#"
   xmlns:svg="http://www.w3.org/2000/svg"
   xmlns="http://www.w3.org/2000/svg"
   xmlns:sodipodi="http://sodipodi.sourceforge.net/DTD/sodipodi-0.dtd"
   xmlns:inkscape="http://www.inkscape.org/namespaces/inkscape"
   width="48"
   height="48"
   viewBox="0 0 12.7 12.7"
   version="1.1"
   id="svg8"
   inkscape:version="0.92.2 5c3e80d, 2017-08-06"
   sodipodi:docname="eye_48_grey.svg">
  <defs
     id="defs2" />
  <sodipodi:namedview
     id="base"
     pagecolor="#ffffff"
     bordercolor="#666666"
     borderopacity="1.0"
     inkscape:pageopacity="0.0"
     inkscape:pageshadow="2"
     inkscape:zoom="13.158713"
     inkscape:cx="22.803088"
     inkscape:cy="25.267683"
     inkscape:document-units="mm"
     inkscape:current-layer="layer3"
     showgrid="false"
     units="px"
     inkscape:window-width="1920"
     inkscape:window-height="1039"
     inkscape:window-x="0"
     inkscape:window-y="0"
     inkscape:window-maximized="1" />
  <metadata
     id="metadata5">
    <rdf:RDF>
      <cc:Work
         rdf:about="">
        <dc:format>image/svg+xml</dc:format>
        <dc:type
           rdf:resource="http://purl.org/dc/dcmitype/StillImage" />
        <dc:title></dc:title>
      </cc:Work>
    </rdf:RDF>
  </metadata>
  <g
     inkscape:label="Layer 1"
     inkscape:groupmode="layer"
     id="layer1"
     transform="translate(0,-284.3)">
    <path
       style="fill:#4d4d4d;stroke-width:0.99999994"
       d="M 24.089844 11.826172 A 23.93851 12.881198 0 0 0 0.15234375 24.707031 A 23.93851 12.881198 0 0 0 24.089844 37.587891 A 23.93851 12.881198 0 0 0 48.029297 24.707031 A 23.93851 12.881198 0 0 0 24.089844 11.826172 z M 23.824219 13.955078 A 10.525345 10.525345 0 0 1 34.349609 24.478516 A 10.525345 10.525345 0 0 1 23.824219 35.003906 A 10.525345 10.525345 0 0 1 13.298828 24.478516 A 10.525345 10.525345 0 0 1 23.824219 13.955078 z "
       transform="matrix(0.26458333,0,0,0.26458333,0,284.3)"
       id="path10" />
  </g>
  <g
     inkscape:groupmode="layer"
     id="layer3"
     inkscape:label="Layer 2">
    <path
       style="fill:#333333;stroke-width:0.99999994"
       d="M 23.824219 15.246094 A 9.3094208 9.3094208 0 0 0 14.515625 24.554688 A 9.3094208 9.3094208 0 0 0 23.824219 33.865234 A 9.3094208 9.3094208 0 0 0 33.134766 24.554688 A 9.3094208 9.3094208 0 0 0 32.771484 21.994141 A 6.1176195 5.9276313 0 0 1 30.816406 22.314453 A 6.1176195 5.9276313 0 0 1 24.699219 16.386719 A 6.1176195 5.9276313 0 0 1 24.806641 15.300781 A 9.3094208 9.3094208 0 0 0 23.824219 15.246094 z "
       transform="scale(0.26458333)"
       id="path19" />
  </g>
</svg>
