<?xml version="1.0" encoding="UTF-8" standalone="no"?>
<!-- Created with Inkscape (http://www.inkscape.org/) -->

<svg
   xmlns:dc="http://purl.org/dc/elements/1.1/"
   xmlns:cc="http://creativecommons.org/ns#"
   xmlns:rdf="http://www.w3.org/1999/02/22-rdf-syntax-ns#"
   xmlns:svg="http://www.w3.org/2000/svg"
   xmlns="http://www.w3.org/2000/svg"
   xmlns:sodipodi="http://sodipodi.sourceforge.net/DTD/sodipodi-0.dtd"
   xmlns:inkscape="http://www.inkscape.org/namespaces/inkscape"
   width="64"
   height="64"
   viewBox="0 0 16.933333 16.933334"
   version="1.1"
   id="svg8"
   inkscape:version="0.92.2 2405546, 2018-03-11"
   sodipodi:docname="info.svg">
  <defs
     id="defs2" />
  <sodipodi:namedview
     id="base"
     pagecolor="#ffffff"
     bordercolor="#666666"
     borderopacity="1.0"
     inkscape:pageopacity="0.0"
     inkscape:pageshadow="2"
     inkscape:zoom="6.5336666"
     inkscape:cx="5.9131319"
     inkscape:cy="14.148015"
     inkscape:document-units="mm"
     inkscape:current-layer="layer2"
     showgrid="false"
     units="px"
     inkscape:window-width="1920"
     inkscape:window-height="1039"
     inkscape:window-x="0"
     inkscape:window-y="0"
     inkscape:window-maximized="1" />
  <metadata
     id="metadata5">
    <rdf:RDF>
      <cc:Work
         rdf:about="">
        <dc:format>image/svg+xml</dc:format>
        <dc:type
           rdf:resource="http://purl.org/dc/dcmitype/StillImage" />
        <dc:title></dc:title>
      </cc:Work>
    </rdf:RDF>
  </metadata>
  <g
     inkscape:label="Layer 1"
     inkscape:groupmode="layer"
     id="layer1"
     transform="translate(0,-280.06664)">
    <circle
       style="opacity:1;fill:none;fill-opacity:1;stroke:#ffffff;stroke-width:0.84791654;stroke-miterlimit:4;stroke-dasharray:none;stroke-opacity:1"
       id="path815"
       cx="8.5044641"
       cy="288.52411"
       r="7.8828144" />
  </g>
  <g
     inkscape:groupmode="layer"
     id="layer2"
     inkscape:label="Layer 2">
    <ellipse
       style="opacity:1;fill:#ffffff;fill-opacity:1;stroke:none;stroke-width:0.71173882;stroke-miterlimit:4;stroke-dasharray:none;stroke-opacity:1"
       id="path839-6"
       cx="9.2346439"
       cy="4.4656296"
       rx="2.0023675"
       ry="2.0160782" />
    <path
       style="fill:#ffffff;fill-opacity:1;stroke:#fff9f9;stroke-width:0.60000002;stroke-linecap:butt;stroke-linejoin:miter;stroke-miterlimit:4;stroke-dasharray:none;stroke-opacity:1"
       d="m 7.3018126,7.0544101 c 0,0 0.3149803,0.6013256 0.8590369,0.715864 0.5440567,0.1145381 2.6343795,0.2863456 2.8348215,-0.1431729 0.200442,-0.4295182 -2.4339378,3.0352628 -2.4912068,4.3810868 -0.057269,1.345824 0.057269,1.431728 0.057269,1.431728 0,0 -1.7753427,-0.887671 -1.9471499,-0.31498 -0.1718075,0.572691 -0.400884,0.572691 -0.400884,0.572691 0,0 1.2885552,-5.2973927 1.2026516,-5.9846219 C 7.3304474,7.0257755 7.3018126,7.0544101 7.3018126,7.0544101 Z"
       id="path897"
       inkscape:connector-curvature="0" />
  </g>
</svg>
