<?xml version="1.0" encoding="UTF-8" standalone="no"?>
<!-- Created with Inkscape (http://www.inkscape.org/) -->

<svg
   xmlns:dc="http://purl.org/dc/elements/1.1/"
   xmlns:cc="http://creativecommons.org/ns#"
   xmlns:rdf="http://www.w3.org/1999/02/22-rdf-syntax-ns#"
   xmlns:svg="http://www.w3.org/2000/svg"
   xmlns="http://www.w3.org/2000/svg"
   xmlns:sodipodi="http://sodipodi.sourceforge.net/DTD/sodipodi-0.dtd"
   xmlns:inkscape="http://www.inkscape.org/namespaces/inkscape"
   width="48"
   height="48"
   viewBox="0 0 12.7 12.7"
   version="1.1"
   id="svg8"
   inkscape:version="0.92.2 5c3e80d, 2017-08-06"
   sodipodi:docname="notify_white.svg">
  <defs
     id="defs2" />
  <sodipodi:namedview
     id="base"
     pagecolor="#ffffff"
     bordercolor="#666666"
     borderopacity="1.0"
     inkscape:pageopacity="0.0"
     inkscape:pageshadow="2"
     inkscape:zoom="13.364318"
     inkscape:cx="12.556208"
     inkscape:cy="29.834497"
     inkscape:document-units="mm"
     inkscape:current-layer="layer1"
     showgrid="false"
     inkscape:window-width="1920"
     inkscape:window-height="1039"
     inkscape:window-x="0"
     inkscape:window-y="0"
     inkscape:window-maximized="1"
     units="px" />
  <metadata
     id="metadata5">
    <rdf:RDF>
      <cc:Work
         rdf:about="">
        <dc:format>image/svg+xml</dc:format>
        <dc:type
           rdf:resource="http://purl.org/dc/dcmitype/StillImage" />
        <dc:title></dc:title>
      </cc:Work>
    </rdf:RDF>
  </metadata>
  <g
     inkscape:label="Layer 1"
     inkscape:groupmode="layer"
     id="layer1"
     transform="translate(0,-284.3)">
    <path
       style="fill:#ffffff;stroke-width:0.02902181"
       d="m 2.3817713,285.33989 a 1.4152666,1.2708515 0 0 0 -1.41522709,1.2708 1.4152666,1.2708515 0 0 0 0.0221163,0.22232 5.6564829,4.4366942 47.85013 0 0 -0.13257687,5.51253 5.6564829,4.4366942 47.85013 0 0 0.45145236,0.70538 3.1831908,6.4814622 65.820346 0 0 -0.75039122,2.39994 3.1831908,6.4814622 65.820346 0 0 6.82427472,0.69355 3.1831908,6.4814622 65.820346 0 0 5.1722075,-5.52091 3.1831908,6.4814622 65.820346 0 0 -3.1865225,-1.51452 5.6564829,4.4366942 47.85013 0 0 -0.029597,-0.0592 5.6564829,4.4366942 47.85013 0 0 -6.0914746,-3.44352 1.4152666,1.2708515 0 0 0 -0.8642591,-0.26638 z m 7.7118767,4.89174 a 2.2356343,5.766154 66.473986 0 1 1.759345,0.73934 2.2356343,5.766154 66.473986 0 1 -4.2749448,4.34581 2.2356343,5.766154 66.473986 0 1 -6.2625278,0.33541 2.2356343,5.766154 66.473986 0 1 4.2749442,-4.34582 2.2356343,5.766154 66.473986 0 1 4.5031834,-1.07474 z m -3.1584331,1.59942 a 0.79195186,2.3342243 56.860064 0 0 -1.9597729,0.74066 0.79195186,2.3342243 56.860064 0 0 -1.5839908,1.9547 0.79195186,2.3342243 56.860064 0 0 2.346556,-0.56164 0.79195186,2.3342243 56.860064 0 0 1.5839914,-1.95469 0.79195186,2.3342243 56.860064 0 0 -0.3867837,-0.17903 z"
       id="path10"
       inkscape:connector-curvature="0"
       inkscape:export-filename="/home/unknown/git/DiaspyQt/icons/notification_48_red.png"
       inkscape:export-xdpi="96"
       inkscape:export-ydpi="96" />
  </g>
  <g
     inkscape:groupmode="layer"
     id="layer2"
     inkscape:label="Layer 2"
     transform="translate(0,-284.3)" />
  <g
     inkscape:groupmode="layer"
     id="layer3"
     inkscape:label="Layer 3"
     transform="translate(0,-284.3)" />
  <g
     inkscape:groupmode="layer"
     id="layer4"
     inkscape:label="Layer 4"
     transform="translate(0,-284.3)" />
  <g
     inkscape:groupmode="layer"
     id="layer5"
     inkscape:label="Layer 5"
     transform="translate(0,-284.3)" />
</svg>
