<?xml version="1.0" encoding="UTF-8" standalone="no"?>
<!-- Created with Inkscape (http://www.inkscape.org/) -->

<svg
   xmlns:dc="http://purl.org/dc/elements/1.1/"
   xmlns:cc="http://creativecommons.org/ns#"
   xmlns:rdf="http://www.w3.org/1999/02/22-rdf-syntax-ns#"
   xmlns:svg="http://www.w3.org/2000/svg"
   xmlns="http://www.w3.org/2000/svg"
   xmlns:sodipodi="http://sodipodi.sourceforge.net/DTD/sodipodi-0.dtd"
   xmlns:inkscape="http://www.inkscape.org/namespaces/inkscape"
   width="48"
   height="48"
   viewBox="0 0 12.7 12.7"
   version="1.1"
   id="svg8"
   inkscape:version="0.92.2 2405546, 2018-03-11"
   sodipodi:docname="settings.svg">
  <defs
     id="defs2" />
  <sodipodi:namedview
     id="base"
     pagecolor="#ffffff"
     bordercolor="#666666"
     borderopacity="1.0"
     inkscape:pageopacity="0.0"
     inkscape:pageshadow="2"
     inkscape:zoom="6.6357553"
     inkscape:cx="56.272877"
     inkscape:cy="31.262572"
     inkscape:document-units="mm"
     inkscape:current-layer="layer5"
     showgrid="false"
     inkscape:measure-start="553.571,662.857"
     inkscape:measure-end="555,662.857"
     inkscape:window-width="1920"
     inkscape:window-height="1039"
     inkscape:window-x="0"
     inkscape:window-y="0"
     inkscape:window-maximized="1"
     units="px" />
  <metadata
     id="metadata5">
    <rdf:RDF>
      <cc:Work
         rdf:about="">
        <dc:format>image/svg+xml</dc:format>
        <dc:type
           rdf:resource="http://purl.org/dc/dcmitype/StillImage" />
        <dc:title />
      </cc:Work>
    </rdf:RDF>
  </metadata>
  <g
     id="layer5"
     inkscape:label="mer"
     style="display:inline;opacity:1"
     transform="translate(0,-284.3)">
    <path
       style="display:inline;stroke-width:0.07241689;fill:#ffffff"
       d="M 19.347656,0.49414062 V 3.2851562 a 21.000894,21.000894 0 0 0 -6.859375,2.8789063 l -2.333984,-2.203125 -6.5000001,6.8808595 2.2578125,2.132812 a 21.000894,21.000894 0 0 0 -2.4609375,6.13086 l -3.12109378,-0.04492 -0.13671874,9.464844 3.28515622,0.04687 a 21.000894,21.000894 0 0 0 2.5722656,6.214843 l -2.0058593,1.898438 6.4804691,6.824219 2.126953,-2.011719 a 21.000894,21.000894 0 0 0 6.539062,2.712891 l 0.0098,2.716796 4.880859,-0.02344 4.878907,0.02344 0.0098,-2.802734 a 21.000894,21.000894 0 0 0 6.384766,-2.775391 l 2.283203,2.160157 6.480469,-6.824219 -2.234375,-2.113281 a 21.000894,21.000894 0 0 0 2.433593,-5.996094 l 3.650391,-0.05078 -0.134766,-9.464844 -3.476562,0.04883 a 21.000894,21.000894 0 0 0 -2.33796,-5.916016 L 44.507812,10.841797 38.009766,3.9609375 35.529297,6.3007812 A 21.000894,21.000894 0 0 0 28.814453,3.3769531 V 0.49414062 Z M 23.857422,10.865234 A 12.801616,12.801616 0 0 1 36.658203,23.667969 12.801616,12.801616 0 0 1 23.857422,36.46875 12.801616,12.801616 0 0 1 11.054688,23.667969 12.801616,12.801616 0 0 1 23.857422,10.865234 Z"
       transform="matrix(0.26458333,0,0,0.26458333,0,284.3)"
       id="rect3727"
       inkscape:connector-curvature="0"
       inkscape:export-xdpi="33.079502"
       inkscape:export-ydpi="33.079502" />
  </g>
  <g
     inkscape:groupmode="layer"
     id="layer6"
     inkscape:label="mer"
     style="display:inline" />
</svg>
