<?xml version="1.0" encoding="UTF-8" standalone="no"?>
<!-- Created with Inkscape (http://www.inkscape.org/) -->

<svg
   xmlns:dc="http://purl.org/dc/elements/1.1/"
   xmlns:cc="http://creativecommons.org/ns#"
   xmlns:rdf="http://www.w3.org/1999/02/22-rdf-syntax-ns#"
   xmlns:svg="http://www.w3.org/2000/svg"
   xmlns="http://www.w3.org/2000/svg"
   xmlns:sodipodi="http://sodipodi.sourceforge.net/DTD/sodipodi-0.dtd"
   xmlns:inkscape="http://www.inkscape.org/namespaces/inkscape"
   width="32"
   height="32"
   viewBox="0 0 8.4666667 8.4666667"
   version="1.1"
   id="svg4644"
   inkscape:version="0.92.2 2405546, 2018-03-11"
   sodipodi:docname="tag.svg">
  <defs
     id="defs4638" />
  <sodipodi:namedview
     id="base"
     pagecolor="#ffffff"
     bordercolor="#666666"
     borderopacity="1.0"
     inkscape:pageopacity="0.0"
     inkscape:pageshadow="2"
     inkscape:zoom="31.452319"
     inkscape:cx="7.591671"
     inkscape:cy="12.381813"
     inkscape:document-units="mm"
     inkscape:current-layer="layer1"
     showgrid="false"
     units="px"
     inkscape:window-width="1920"
     inkscape:window-height="1039"
     inkscape:window-x="0"
     inkscape:window-y="0"
     inkscape:window-maximized="1" />
  <metadata
     id="metadata4641">
    <rdf:RDF>
      <cc:Work
         rdf:about="">
        <dc:format>image/svg+xml</dc:format>
        <dc:type
           rdf:resource="http://purl.org/dc/dcmitype/StillImage" />
        <dc:title />
      </cc:Work>
    </rdf:RDF>
  </metadata>
  <g
     inkscape:label="Layer 1"
     inkscape:groupmode="layer"
     id="layer1"
     transform="translate(0,-288.53333)">
    <rect
       style="opacity:1;fill:#b3b3b3;fill-opacity:1;stroke-width:0.28854162"
       id="rect5191"
       width="1.4143633"
       height="7.748251"
       x="1.8449328"
       y="288.8801"
       rx="0.43622011"
       ry="0.81432515" />
    <rect
       style="opacity:1;fill:#b3b3b3;fill-opacity:1;stroke-width:0.28854162"
       id="rect5191-3"
       width="1.4143633"
       height="7.748251"
       x="5.0118766"
       y="288.94159"
       rx="0.43622011"
       ry="0.81432515" />
    <rect
       style="opacity:1;fill:#b3b3b3;fill-opacity:1;stroke-width:0.28854162"
       id="rect5191-3-6"
       width="1.4143633"
       height="7.748251"
       x="290.87866"
       y="-8.0865784"
       rx="0.43622011"
       ry="0.81432515"
       transform="rotate(90)" />
    <rect
       style="opacity:1;fill:#b3b3b3;fill-opacity:1;stroke-width:0.28854162"
       id="rect5191-3-6-7"
       width="1.4143633"
       height="7.748251"
       x="293.33844"
       y="-8.0865793"
       rx="0.43622011"
       ry="0.81432515"
       transform="rotate(90)" />
  </g>
</svg>
