<?xml version="1.0" encoding="UTF-8" standalone="no"?>
<!-- Created with Inkscape (http://www.inkscape.org/) -->

<svg
   xmlns:dc="http://purl.org/dc/elements/1.1/"
   xmlns:cc="http://creativecommons.org/ns#"
   xmlns:rdf="http://www.w3.org/1999/02/22-rdf-syntax-ns#"
   xmlns:svg="http://www.w3.org/2000/svg"
   xmlns="http://www.w3.org/2000/svg"
   xmlns:sodipodi="http://sodipodi.sourceforge.net/DTD/sodipodi-0.dtd"
   xmlns:inkscape="http://www.inkscape.org/namespaces/inkscape"
   width="96"
   height="96"
   viewBox="0 0 25.4 25.4"
   version="1.1"
   id="svg8"
   inkscape:version="0.92.2 2405546, 2018-03-11"
   sodipodi:docname="delete_thumb.svg">
  <defs
     id="defs2" />
  <sodipodi:namedview
     id="base"
     pagecolor="#ffffff"
     bordercolor="#666666"
     borderopacity="1.0"
     inkscape:pageopacity="0.0"
     inkscape:pageshadow="2"
     inkscape:zoom="6.7164265"
     inkscape:cx="40.056599"
     inkscape:cy="44.663741"
     inkscape:document-units="mm"
     inkscape:current-layer="g830"
     showgrid="false"
     units="px"
     inkscape:window-width="1920"
     inkscape:window-height="1039"
     inkscape:window-x="0"
     inkscape:window-y="0"
     inkscape:window-maximized="1" />
  <metadata
     id="metadata5">
    <rdf:RDF>
      <cc:Work
         rdf:about="">
        <dc:format>image/svg+xml</dc:format>
        <dc:type
           rdf:resource="http://purl.org/dc/dcmitype/StillImage" />
        <dc:title></dc:title>
      </cc:Work>
    </rdf:RDF>
  </metadata>
  <g
     inkscape:label="Layer 1"
     inkscape:groupmode="layer"
     id="layer1"
     transform="translate(0,-271.6)"
     style="opacity:1">
    <path
       style="opacity:1;fill:#000000;fill-opacity:1;stroke-width:1.83261788"
       d="M 48.054688,0.48828125 A 47.681605,47.681605 0 0 0 0.37304688,48.169922 47.681605,47.681605 0 0 0 48.054688,95.851562 47.681605,47.681605 0 0 0 95.736328,48.169922 47.681605,47.681605 0 0 0 48.054688,0.48828125 Z M 49.914062,12.845703 A 38.524947,38.524947 0 0 1 88.439453,51.371094 38.524947,38.524947 0 0 1 49.914062,89.896484 38.524947,38.524947 0 0 1 11.390625,51.371094 38.524947,38.524947 0 0 1 49.914062,12.845703 Z"
       transform="matrix(0.26458333,0,0,0.26458333,0,271.6)"
       id="path817"
       inkscape:connector-curvature="0" />
  </g>
  <g
     inkscape:label="Layer 1 copy copy"
     inkscape:groupmode="layer"
     id="g830"
     transform="translate(0,-271.6)"
     style="display:inline;opacity:0.401">
    <circle
       style="opacity:1;fill:#ffffff;fill-opacity:1;stroke-width:0.391765"
       id="circle828"
       cx="13.206661"
       cy="285.1918"
       r="10.193059" />
  </g>
  <g
     inkscape:groupmode="layer"
     id="layer2"
     inkscape:label="Layer 2"
     transform="translate(0,12.7)">
    <text
       xml:space="preserve"
       style="font-style:normal;font-weight:normal;font-size:10.58333302px;line-height:1.25;font-family:sans-serif;letter-spacing:0px;word-spacing:0px;fill:#000000;fill-opacity:1;stroke:none;stroke-width:0.26458332"
       x="7.8786936"
       y="7.9727831"
       id="text822"><tspan
         sodipodi:role="line"
         id="tspan820"
         x="7.8786936"
         y="7.9727831"
         style="font-size:16.93333244px;stroke-width:0.26458332">X</tspan></text>
  </g>
</svg>
