<?xml version="1.0" encoding="UTF-8" standalone="no"?>
<!-- Created with Inkscape (http://www.inkscape.org/) -->

<svg
   xmlns:dc="http://purl.org/dc/elements/1.1/"
   xmlns:cc="http://creativecommons.org/ns#"
   xmlns:rdf="http://www.w3.org/1999/02/22-rdf-syntax-ns#"
   xmlns:svg="http://www.w3.org/2000/svg"
   xmlns="http://www.w3.org/2000/svg"
   xmlns:sodipodi="http://sodipodi.sourceforge.net/DTD/sodipodi-0.dtd"
   xmlns:inkscape="http://www.inkscape.org/namespaces/inkscape"
   width="100"
   height="50"
   viewBox="0 0 26.458333 13.229167"
   version="1.1"
   id="svg8"
   sodipodi:docname="gif_play.svg"
   inkscape:version="0.92.2 2405546, 2018-03-11">
  <defs
     id="defs2" />
  <sodipodi:namedview
     id="base"
     pagecolor="#ffffff"
     bordercolor="#666666"
     borderopacity="1.0"
     inkscape:pageopacity="0.0"
     inkscape:pageshadow="2"
     inkscape:zoom="9.3046154"
     inkscape:cx="58.192519"
     inkscape:cy="24.13419"
     inkscape:document-units="mm"
     inkscape:current-layer="layer4"
     showgrid="false"
     units="px"
     inkscape:window-width="1920"
     inkscape:window-height="1039"
     inkscape:window-x="0"
     inkscape:window-y="0"
     inkscape:window-maximized="1" />
  <metadata
     id="metadata5">
    <rdf:RDF>
      <cc:Work
         rdf:about="">
        <dc:format>image/svg+xml</dc:format>
        <dc:type
           rdf:resource="http://purl.org/dc/dcmitype/StillImage" />
        <dc:title></dc:title>
      </cc:Work>
    </rdf:RDF>
  </metadata>
  <g
     inkscape:groupmode="layer"
     id="layer4"
     inkscape:label="Layer 3"
     style="opacity:0.4">
    <rect
       style="fill:#ffffff;stroke-width:0.26458332"
       id="rect3772"
       width="26.416775"
       height="13.165732"
       x="0"
       y="0.0065620653"
       rx="1.0000006" />
  </g>
  <g
     inkscape:label="Layer 1"
     inkscape:groupmode="layer"
     id="layer1"
     transform="translate(0,-283.77081)">
    <text
       xml:space="preserve"
       style="font-style:normal;font-weight:normal;font-size:10.58333302px;line-height:1.25;font-family:sans-serif;letter-spacing:0px;word-spacing:0px;fill:#000000;fill-opacity:1;stroke:none;stroke-width:0.26458332"
       x="0.56871498"
       y="294.15643"
       id="text3715"><tspan
         sodipodi:role="line"
         id="tspan3713"
         x="0.56871498"
         y="294.15643"
         style="fill:#000000;stroke-width:0.26458332">GIF</tspan></text>
  </g>
  <g
     inkscape:groupmode="layer"
     id="layer2"
     inkscape:label="Layer 2"
     style="display:inline"
     transform="translate(0,-283.77081)">
    <path
       style="fill:#000000;stroke-width:0.26458332"
       d="m 19.340549,284.6753 c -0.0014,-3e-5 -0.0028,5.3e-4 -0.0041,5.2e-4 v 10.9771 l 5.381067,-5.10614 c 0.08037,-0.0763 0.0835,-0.2023 0.0072,-0.28267 l -5.244642,-5.5268 c -0.03813,-0.0402 -0.08842,-0.0607 -0.139525,-0.062 z"
       id="rect3718"
       inkscape:connector-curvature="0" />
    <path
       inkscape:connector-curvature="0"
       id="path3744"
       d="m 19.340549,284.6753 c -0.0014,-3e-5 -0.0028,5.3e-4 -0.0041,5.2e-4 v 10.9771 l 5.381067,-5.10614 c 0.08037,-0.0763 0.0835,-0.2023 0.0072,-0.28267 l -5.244642,-5.5268 c -0.03813,-0.0402 -0.08842,-0.0607 -0.139525,-0.062 z"
       style="fill:#000000;stroke-width:0.26458332" />
  </g>
</svg>
